5 Importing/Exporting Data – Introduction to R and the tidyverse
…
The readr package has many functions but the import ones all begin read_* and the export ones all begin write_*.

5.2 Reading in a CSV

The read_csv function is a special case of the read_delim function, a function that allows us to read in text files with a variety of different delimiters and structures. The read_csv function enables us to read in a CSV file. As always, we must give the imported data a name, else it is simply printed to screen. The named data is imported as a tbl_df data frame.

# Read in and save as `theoph`
# The "." represents the current working directory so this is a relative path
theoph <- read_csv("./data/theoph.csv")

# Now print
theoph

# A tibble: 132 × 5
   SUBJID    WT  DOSE  TIME  CONC
    <dbl> <dbl> <dbl> <dbl> <dbl>
 1      1  79.6  4.02  0     0.74
 2      1  79.6  4.02  0.25  2.84
 3      1  79.6  4.02  0.57  6.57
 4      1  79.6  4.02  1.12 10.5 
 5      1  79.6  4.02  2.02  9.66
 6      1  79.6  4.02  3.82  8.58
 7      1  79.6  4.02  5.1   8.36
 8      1  79.6  4.02  7.03  7.47
 9      1  79.6  4.02  9.05  6.89
10      1  79.6  4.02 12.1   5.94
# ℹ 122 more rows
…
RStudio understands the concept of labels and the RStudio data viewer is arguably better than the one in PC SAS!!!

There are other packages, e.g. foreign and SASXport, which have similar functionality when it comes to importing SAS transport files. However, we use haven for reasons of consistency and efficiency.

# Load the package
library(haven)

# Read in the data (remembering file extension)
dm <- read_sas("./data/dm.sas7bdat")

# View the data
dm    # or try View(dm)

# A tibble: 30 × 7
   USUBJID            AGE SEX   COUNTRY RACE                      ETHNIC   ARM  
   <chr>            <dbl> <chr> <chr>   <chr>                     <chr>    <chr>
 1 STD123456:000001    32 F     UK      BLACK OR AFRICAN AMERICAN NOT HIS… Comp…
 2 STD123456:000002    28 M     FRA     WHITE                     NOT HIS… Comp…
 3 STD123456:000003    55 M     USA     BLACK OR AFRICAN AMERICAN NOT HIS… Comp…
 4 STD123456:000004    35 F     GER     WHITE                     HISPANI… Comp…
 5 STD123456:000005    30 F     IRE     WHITE                     NOT HIS… Comp…
 6 STD123456:000006    22 F     GER     WHITE                     NOT HIS… Comp…
 7 STD123456:000007    59 F     USA     WHITE                     NOT HIS… Comp…
 8 STD123456:000008    53 M     GER     WHITE                     NOT HIS… GSK  
 9 STD123456:000009    60 F     USA     WHITE                     NOT HIS… GSK  
10 STD123456:000010    48 M     USA     WHITE                     NOT HIS… Comp…
# ℹ 20 more rows
…
