6 Data Handling – Introduction to R and the tidyverse
…
contains

matches

one_of

everything

…

To use these utility functions we simply call them in place of a named column(s). For example, here we select all columns that begin with the letters “ACT”:

select(act, starts_with("ACT"))

# A tibble: 165 × 5
   ACT0101 ACT0102 ACT0103 ACT0104 ACT0105
     <dbl>   <dbl>   <dbl>   <dbl>   <dbl>
 1       5       2       3       3       3
 2       5       2       3       3       3
 3       3       4       3       2       1
 4       3       3       4       3       2
 5       3       5       1       2       3
 6       3       5       3       3       3
 7       3       3       3       3       3
 8       3       3       3       3       3
 9       3       3       3       4       4
10       4       4       4       4       4
# ℹ 155 more rows

We can also use a : to select all columns between the column on the left of the : and the column on the right of the :.

select(dm, AGE:COUNTRY)

# A tibble: 30 × 3
     AGE SEX   COUNTRY
   <dbl> <chr> <chr>  
 1    32 F     UK     
 2    28 M     FRA    
 3    55 M     USA    
 4    35 F     GER    
 5    30 F     IRE    
 6    22 F     GER    
 7    59 F     USA    
 8    53 M     GER    
 9    60 F     USA    
10    48 M     USA    
# ℹ 20 more rows

It is again important to note that although : can be used outside of the select function, the way we have used it to specify columns is unique to this use case. In other words we can’t write “A”:“Z” or similar.

6.5 Column Order

As well as subsetting columns, we can use select to move columns around (e.g. after a merge). Here we use the everything helper to move the ‘ARM’ column to the left and then keep ‘everything else’ as it was.

select(dm, ARM, everything())

# A tibble: 30 × 7
   ARM        USUBJID            AGE SEX   COUNTRY RACE                   ETHNIC
   <chr>      <chr>            <dbl> <chr> <chr>   <chr>                  <chr> 
 1 Comparator STD123456:000001    32 F     UK      BLACK OR AFRICAN AMER… NOT H…
 2 Comparator STD123456:000002    28 M     FRA     WHITE                  NOT H…
 3 Comparator STD123456:000003    55 M     USA     BLACK OR AFRICAN AMER… NOT H…
 4 Comparator STD123456:000004    35 F     GER     WHITE                  HISPA…
 5 Comparator STD123456:000005    30 F     IRE     WHITE                  NOT H…
 6 Comparator STD123456:000006    22 F     GER     WHITE                  NOT H…
 7 Comparator STD123456:000007    59 F     USA     WHITE                  NOT H…
 8 GSK        STD123456:000008    53 M     GER     WHITE                  NOT H…
 9 GSK        STD123456:000009    60 F     USA     WHITE                  NOT H…
10 Comparator STD123456:000010    48 M     USA     WHITE                  NOT H…
# ℹ 20 more rows

The relocate function is another relatively recent addition to dplyr that provides finer control when moving columns. Arguments .before and .after let us specify exactly where one or more columns are to be located.

relocate(dm, ARM, .after = USUBJID)

# A tibble: 30 × 7
   USUBJID          ARM          AGE SEX   COUNTRY RACE                   ETHNIC
   <chr>            <chr>      <dbl> <chr> <chr>   <chr>                  <chr> 
 1 STD123456:000001 Comparator    32 F     UK      BLACK OR AFRICAN AMER… NOT H…
 2 STD123456:000002 Comparator    28 M     FRA     WHITE                  NOT H…
 3 STD123456:000003 Comparator    55 M     USA     BLACK OR AFRICAN AMER… NOT H…
 4 STD123456:000004 Comparator    35 F     GER     WHITE                  HISPA…
 5 STD123456:000005 Comparator    30 F     IRE     WHITE                  NOT H…
 6 STD123456:000006 Comparator    22 F     GER     WHITE                  NOT H…
 7 STD123456:000007 Comparator    59 F     USA     WHITE                  NOT H…
 8 STD123456:000008 GSK           53 M     GER     WHITE                  NOT H…
 9 STD123456:000009 GSK           60 F     USA     WHITE                  NOT H…
10 STD123456:000010 Comparator    48 M     USA     WHITE                  NOT H…
# ℹ 20 more rows

# Alternatively
#relocate(dm, AGE:COUNTRY, .after = ARM)

6.6 Sorting

In general, tidyverse functions are named well and hence easy to remember. Unfortunately, sort and order already exist as R functions and so in the tidyverse we work with arrange! As with most of the tidyverse functions it is very easy to use. In this first example we use the arrange function to sort the demography data by age.

# Sort young to old
arrange(dm, AGE)

# A tibble: 30 × 7
   USUBJID            AGE SEX   COUNTRY RACE                      ETHNIC   ARM  
   <chr>            <dbl> <chr> <chr>   <chr>                     <chr>    <chr>
 1 STD123456:000006    22 F     GER     WHITE                     NOT HIS… Comp…
 2 STD123456:000012    26 M     FRA     BLACK OR AFRICAN AMERICAN NOT HIS… GSK  
 3 STD123456:000002    28 M     FRA     WHITE                     NOT HIS… Comp…
 4 STD123456:000017    28 F     FRA     WHITE                     NOT HIS… GSK  
 5 STD123456:000023    28 F     IRE     BLACK OR AFRICAN AMERICAN NOT HIS… Comp…
 6 STD123456:000005    30 F     IRE     WHITE                     NOT HIS… Comp…
 7 STD123456:000001    32 F     UK      BLACK OR AFRICAN AMERICAN NOT HIS… Comp…
 8 STD123456:000004    35 F     GER     WHITE                     HISPANI… Comp…
 9 STD123456:000022    46 M     GER     WHITE                     NOT HIS… GSK  
10 STD123456:000010    48 M     USA     WHITE                     NOT HIS… Comp…
# ℹ 20 more rows

For a descending sort we call the utility function, desc, around the variable that we’re sorting by.

# Sort old to young
arrange(dm, desc(AGE))

# A tibble: 30 × 7
   USUBJID            AGE SEX   COUNTRY RACE                      ETHNIC   ARM  
   <chr>            <dbl> <chr> <chr>   <chr>                     <chr>    <chr>
 1 STD123456:000026    71 F     FRA     WHITE                     NOT HIS… GSK  
 2 STD123456:000030    71 M     USA     WHITE                     NOT HIS… Comp…
 3 STD123456:000018    69 F     IRE     WHITE                     NOT HIS… Comp…
 4 STD123456:000029    68 F     UK      WHITE                     NOT HIS… Comp…
 5 STD123456:000027    67 F     IRE     ASIAN                     NOT HIS… Comp…
 6 STD123456:000028    67 M     IRE     WHITE                     HISPANI… GSK  
 7 STD123456:000011    66 F     USA     WHITE                     NOT HIS… GSK  
 8 STD123456:000020    64 M     FRA     BLACK OR AFRICAN AMERICAN NOT HIS… Comp…
 9 STD123456:000009    60 F     USA     WHITE                     NOT HIS… GSK  
10 STD123456:000007    59 F     USA     WHITE                     NOT HIS… Comp…
# ℹ 20 more rows

We can sort by as many variables as we have in our data. We can also sort by categorical variables, which are ordered alphabetically in the sort.

# Sort by multiple variables
arrange(dm, desc(ARM), COUNTRY, desc(AGE))

# A tibble: 30 × 7
   USUBJID            AGE SEX   COUNTRY RACE                      ETHNIC   ARM  
   <chr>            <dbl> <chr> <chr>   <chr>                     <chr>    <chr>
 1 STD123456:000026    71 F     FRA     WHITE                     NOT HIS… GSK  
 2 STD123456:000015    59 F     FRA     WHITE                     HISPANI… GSK  
 3 STD123456:000017    28 F     FRA     WHITE                     NOT HIS… GSK  
 4 STD123456:000012    26 M     FRA     BLACK OR AFRICAN AMERICAN NOT HIS… GSK  
 5 STD123456:000008    53 M     GER     WHITE                     NOT HIS… GSK  
 6 STD123456:000022    46 M     GER     WHITE                     NOT HIS… GSK  
 7 STD123456:000028    67 M     IRE     WHITE                     HISPANI… GSK  
 8 STD123456:000013    51 F     IRE     WHITE                     HISPANI… GSK  
 9 STD123456:000011    66 F     USA     WHITE                     NOT HIS… GSK  
10 STD123456:000009    60 F     USA     WHITE                     NOT HIS… GSK  
# ℹ 20 more rows
…
Select the USUBJID, VISITNUM and VISIT columns

Remove the date (QSDTC) column

Sort the data by USUBJID and descending VISITNUM

6.8 Creating New Columns: mutate

The mutate function allows us to create new columns within our data. We typically do so by manipulating other columns in the data but we can define our columns in any way we like.

# Create a new column that is the square of the height column
mutate(vs, Height_sq = HEIGHT ^2)

# A tibble: 30 × 4
   USUBJID          HEIGHT WEIGHT Height_sq
   <chr>             <dbl>  <dbl>     <dbl>
 1 STD123456:000001    165   88       27225
 2 STD123456:000002    179  100       32041
 3 STD123456:000003    182   81       33124
 4 STD123456:000004    166   91       27556
 5 STD123456:000005    169   73.6     28561
 6 STD123456:000006    164   66       26896
 7 STD123456:000007    157  107       24649
 8 STD123456:000008    189  101       35721
 9 STD123456:000009    155   54.1     24025
10 STD123456:000010    171   88       29241
# ℹ 20 more rows

# Create a new flag variable with the value 1
mutate(vs, flag = 1)

# A tibble: 30 × 4
   USUBJID          HEIGHT WEIGHT  flag
   <chr>             <dbl>  <dbl> <dbl>
 1 STD123456:000001    165   88       1
 2 STD123456:000002    179  100       1
 3 STD123456:000003    182   81       1
 4 STD123456:000004    166   91       1
 5 STD123456:000005    169   73.6     1
 6 STD123456:000006    164   66       1
 7 STD123456:000007    157  107       1
 8 STD123456:000008    189  101       1
 9 STD123456:000009    155   54.1     1
10 STD123456:000010    171   88       1
# ℹ 20 more rows

One nice property of the mutate function is that it allows us to immediately use columns that we create, much like SAS.

mutate(vs, 
       Height_m2 = (HEIGHT/100) ^2, 
       BMI = WEIGHT / Height_m2)

# A tibble: 30 × 5
   USUBJID          HEIGHT WEIGHT Height_m2   BMI
   <chr>             <dbl>  <dbl>     <dbl> <dbl>
 1 STD123456:000001    165   88        2.72  32.3
 2 STD123456:000002    179  100        3.20  31.2
 3 STD123456:000003    182   81        3.31  24.5
 4 STD123456:000004    166   91        2.76  33.0
 5 STD123456:000005    169   73.6      2.86  25.8
 6 STD123456:000006    164   66        2.69  24.5
 7 STD123456:000007    157  107        2.46  43.4
 8 STD123456:000008    189  101        3.57  28.3
 9 STD123456:000009    155   54.1      2.40  22.5
10 STD123456:000010    171   88        2.92  30.1
# ℹ 20 more rows

In the above example we have used some very simple numerical transformations. In the following sections we will look at some other useful functions for working with data. Each of the functions that we see are designed to work with vectors (columns of data). We can therefore call them all via the mutate function.

6.9 Renaming Columns

In the example below we rename the “COUNTRY” column, “LOCATION”. As we shall see later when creating new columns, the new name of the new column is placed to the left of the equals and the old name on the right.

# Rename the COUNTRY column to LOCATION - New name on the left!!!
rename(dm, LOCATION = COUNTRY)

# A tibble: 30 × 7
   USUBJID            AGE SEX   LOCATION RACE                      ETHNIC  ARM  
   <chr>            <dbl> <chr> <chr>    <chr>                     <chr>   <chr>
 1 STD123456:000001    32 F     UK       BLACK OR AFRICAN AMERICAN NOT HI… Comp…
 2 STD123456:000002    28 M     FRA      WHITE                     NOT HI… Comp…
 3 STD123456:000003    55 M     USA      BLACK OR AFRICAN AMERICAN NOT HI… Comp…
 4 STD123456:000004    35 F     GER      WHITE                     HISPAN… Comp…
 5 STD123456:000005    30 F     IRE      WHITE                     NOT HI… Comp…
 6 STD123456:000006    22 F     GER      WHITE                     NOT HI… Comp…
 7 STD123456:000007    59 F     USA      WHITE                     NOT HI… Comp…
 8 STD123456:000008    53 M     GER      WHITE                     NOT HI… GSK  
 9 STD123456:000009    60 F     USA      WHITE                     NOT HI… GSK  
10 STD123456:000010    48 M     USA      WHITE                     NOT HI… Comp…
# ℹ 20 more rows

Further columns can be renamed by using a comma to separate each pair of new and old names.

# Rename two columns - New name on the left!!!
rename(dm, LOCATION = COUNTRY, TREATMENT = ARM)

# A tibble: 30 × 7
   USUBJID            AGE SEX   LOCATION RACE                   ETHNIC TREATMENT
   <chr>            <dbl> <chr> <chr>    <chr>                  <chr>  <chr>    
 1 STD123456:000001    32 F     UK       BLACK OR AFRICAN AMER… NOT H… Comparat…
 2 STD123456:000002    28 M     FRA      WHITE                  NOT H… Comparat…
 3 STD123456:000003    55 M     USA      BLACK OR AFRICAN AMER… NOT H… Comparat…
 4 STD123456:000004    35 F     GER      WHITE                  HISPA… Comparat…
 5 STD123456:000005    30 F     IRE      WHITE                  NOT H… Comparat…
 6 STD123456:000006    22 F     GER      WHITE                  NOT H… Comparat…
 7 STD123456:000007    59 F     USA      WHITE                  NOT H… Comparat…
 8 STD123456:000008    53 M     GER      WHITE                  NOT H… GSK      
 9 STD123456:000009    60 F     USA      WHITE                  NOT H… GSK      
10 STD123456:000010    48 M     USA      WHITE                  NOT H… Comparat…
# ℹ 20 more rows
…
 [1] F M M F F F F M F M F M F F F F F F F M M M F F F F F M F M
Levels: F M

# Re-order females and males
SEX <- lvls_reorder(SEX, c(2, 1))
SEX

 [1] F M M F F F F M F M F M F F F F F F F M M M F F F F F M F M
Levels: M F

# Now in the data, (where we can't see the order unless we sort)
dm_new <- mutate(dm, SEX = lvls_reorder(SEX, c(2, 1)))
arrange(dm_new, SEX)

# A tibble: 30 × 7
   USUBJID            AGE SEX   COUNTRY RACE                      ETHNIC   ARM  
   <chr>            <dbl> <fct> <chr>   <chr>                     <chr>    <chr>
 1 STD123456:000002    28 M     FRA     WHITE                     NOT HIS… Comp…
 2 STD123456:000003    55 M     USA     BLACK OR AFRICAN AMERICAN NOT HIS… Comp…
 3 STD123456:000008    53 M     GER     WHITE                     NOT HIS… GSK  
 4 STD123456:000010    48 M     USA     WHITE                     NOT HIS… Comp…
 5 STD123456:000012    26 M     FRA     BLACK OR AFRICAN AMERICAN NOT HIS… GSK  
 6 STD123456:000020    64 M     FRA     BLACK OR AFRICAN AMERICAN NOT HIS… Comp…
 7 STD123456:000021    55 M     GER     ASIAN                     NOT HIS… Comp…
 8 STD123456:000022    46 M     GER     WHITE                     NOT HIS… GSK  
 9 STD123456:000028    67 M     IRE     WHITE                     HISPANI… GSK  
10 STD123456:000030    71 M     USA     WHITE                     NOT HIS… Comp…
# ℹ 20 more rows
…
# How many days until Christmas?
difftime(ymd("2017-12-25"), today()) 

Time difference of -2936 days

6.15 Transmute

All of the functions that we’ve seen in recent sections can be used with the mutate function. They can also be used with a counterpart of mutate, transmute. The difference between mutate and transmute is that when we use transmute, the newly created columns are kept but the old ones are dropped. Occasionally this can be useful if summarising a large number of variables into a total score or similar.

transmute(vs, 
          Height_m2 = (HEIGHT/100) ^2, 
          BMI = WEIGHT / Height_m2)

# A tibble: 30 × 2
   Height_m2   BMI
       <dbl> <dbl>
 1      2.72  32.3
 2      3.20  31.2
 3      3.31  24.5
 4      2.76  33.0
 5      2.86  25.8
 6      2.69  24.5
 7      2.46  43.4
 8      3.57  28.3
 9      2.40  22.5
10      2.92  30.1
# ℹ 20 more rows
…
