9 Setting and Merging – Introduction to R and the tidyverse
…
9.2 Binding Columns bind_cols

For columns an equivalent function, bind_cols exists. So long as two data frames have the same number of rows we can use bind_cols to join them together. In the following example we should merge by USUBJID but let’s see what happens if we just stick the data together.

# Simply stick the demography and vitals data together
# Scary stuff! But it works since both have the same subjects in the same order
bind_cols(dm, vs)

New names:
• `USUBJID` -> `USUBJID...1`
• `USUBJID` -> `USUBJID...8`

# A tibble: 30 × 10
   USUBJID...1    AGE SEX   COUNTRY RACE  ETHNIC ARM   USUBJID...8 HEIGHT WEIGHT
   <chr>        <dbl> <chr> <chr>   <chr> <chr>  <chr> <chr>        <dbl>  <dbl>
 1 STD123456:0…    32 F     UK      BLAC… NOT H… Comp… STD123456:…    165   88  
 2 STD123456:0…    28 M     FRA     WHITE NOT H… Comp… STD123456:…    179  100  
 3 STD123456:0…    55 M     USA     BLAC… NOT H… Comp… STD123456:…    182   81  
 4 STD123456:0…    35 F     GER     WHITE HISPA… Comp… STD123456:…    166   91  
 5 STD123456:0…    30 F     IRE     WHITE NOT H… Comp… STD123456:…    169   73.6
 6 STD123456:0…    22 F     GER     WHITE NOT H… Comp… STD123456:…    164   66  
 7 STD123456:0…    59 F     USA     WHITE NOT H… Comp… STD123456:…    157  107  
 8 STD123456:0…    53 M     GER     WHITE NOT H… GSK   STD123456:…    189  101  
 9 STD123456:0…    60 F     USA     WHITE NOT H… GSK   STD123456:…    155   54.1
10 STD123456:0…    48 M     USA     WHITE NOT H… Comp… STD123456:…    171   88  
# ℹ 20 more rows
…
The *_join functions optimise the join for us so as long as we’re not performing a many-to-many merge no prior sorting is required. We need only specify which data frames we wish to join and which variables we wish to join by. In the following example we join together the demographics and vital signs data. Each of the join functions follows the same format of arguments: the first two arguments are the two data frames to join, the third argument is the by argument. This third argument requires a character vector of columns that we wish to join by.

full_join(dm, vs, by = "USUBJID")

# A tibble: 30 × 9
   USUBJID            AGE SEX   COUNTRY RACE          ETHNIC ARM   HEIGHT WEIGHT
   <chr>            <dbl> <chr> <chr>   <chr>         <chr>  <chr>  <dbl>  <dbl>
 1 STD123456:000001    32 F     UK      BLACK OR AFR… NOT H… Comp…    165   88  
 2 STD123456:000002    28 M     FRA     WHITE         NOT H… Comp…    179  100  
 3 STD123456:000003    55 M     USA     BLACK OR AFR… NOT H… Comp…    182   81  
 4 STD123456:000004    35 F     GER     WHITE         HISPA… Comp…    166   91  
 5 STD123456:000005    30 F     IRE     WHITE         NOT H… Comp…    169   73.6
 6 STD123456:000006    22 F     GER     WHITE         NOT H… Comp…    164   66  
 7 STD123456:000007    59 F     USA     WHITE         NOT H… Comp…    157  107  
 8 STD123456:000008    53 M     GER     WHITE         NOT H… GSK      189  101  
 9 STD123456:000009    60 F     USA     WHITE         NOT H… GSK      155   54.1
10 STD123456:000010    48 M     USA     WHITE         NOT H… Comp…    171   88  
# ℹ 20 more rows
…
