11 Introduction to Statistical Modelling – Introduction to R and the tidyverse
…
      11  Introduction to Statistical Modelling

The core purpose of R is to provide a programming framework for statistical modelling. Perhaps for this reason, the basics of statistical modelling have not been touched by the tidyverse. As we shall see, however, the modelr and broom packages can help us better-process model output.

11.1 A Simple Linear Model

All forms of model follow a similar specification in R so let’s start with the simplest, the linear model. This can be fitted using the lm function. To demonstrate how lm works we first merge/join the demography and vitals data frame together to create a population dataset.

pop <- inner_join(dm, vs, by = "USUBJID")
pop

# A tibble: 30 × 9
   USUBJID            AGE SEX   COUNTRY RACE          ETHNIC ARM   HEIGHT WEIGHT
   <chr>            <dbl> <chr> <chr>   <chr>         <chr>  <chr>  <dbl>  <dbl>
 1 STD123456:000001    32 F     UK      BLACK OR AFR… NOT H… Comp…    165   88  
 2 STD123456:000002    28 M     FRA     WHITE         NOT H… Comp…    179  100  
 3 STD123456:000003    55 M     USA     BLACK OR AFR… NOT H… Comp…    182   81  
 4 STD123456:000004    35 F     GER     WHITE         HISPA… Comp…    166   91  
 5 STD123456:000005    30 F     IRE     WHITE         NOT H… Comp…    169   73.6
 6 STD123456:000006    22 F     GER     WHITE         NOT H… Comp…    164   66  
 7 STD123456:000007    59 F     USA     WHITE         NOT H… Comp…    157  107  
 8 STD123456:000008    53 M     GER     WHITE         NOT H… GSK      189  101  
 9 STD123456:000009    60 F     USA     WHITE         NOT H… GSK      155   54.1
10 STD123456:000010    48 M     USA     WHITE         NOT H… Comp…    171   88  
# ℹ 20 more rows
…
